…
------------------------------------------------------------------------

3.2 First steps
---------------

다음의 질문을 대답하는데 있어, 첫 번째 그래프를 사용해 볼 것이다. <br /> 큰 엔진을 사용하는 차들이, 작은 엔진을 사용하는 차들보다 기름을 많이 먹을까? <br /> Do cars with big engines use more fuel than cars with small engines? <br /> 이미 답을 알고 있을수도 있지만, 더 정확하게 답을 알아보자. <br /> 엔진 사이즈와 연비(fuel efficiency)는 어떤 관계가 있을까? 양의 관계? 음의 관계? 선형? 비선형?

### 3.2.1 The mpg data frame

ggplot2 패키지에 있는 `mpg`라는 데이터 프레임을 이용해서 답을 찾을 수 있다. <br /> 데이터 프레임은, 변수들variables을 열(column)에, 관측치들observations을 행(row)에 저장해놓은 네모난 컬렉션. <br /> `mpg`는 US Environmental Protection Agency가 모은 38개 모델의 차들에 대해 관측치들을 가지고 있다.

``` r
mpg
## # A tibble: 234 x 11
##    manufacturer model displ  year   cyl trans drv     cty   hwy fl    class
##    <chr>        <chr> <dbl> <int> <int> <chr> <chr> <int> <int> <chr> <chr>
##  1 audi         a4      1.8  1999     4 auto~ f        18    29 p     comp~
##  2 audi         a4      1.8  1999     4 manu~ f        21    29 p     comp~
##  3 audi         a4      2    2008     4 manu~ f        20    31 p     comp~
##  4 audi         a4      2    2008     4 auto~ f        21    30 p     comp~
##  5 audi         a4      2.8  1999     6 auto~ f        16    26 p     comp~
##  6 audi         a4      2.8  1999     6 manu~ f        18    26 p     comp~
##  7 audi         a4      3.1  2008     6 auto~ f        18    27 p     comp~
##  8 audi         a4 q~   1.8  1999     4 manu~ 4        18    26 p     comp~
##  9 audi         a4 q~   1.8  1999     4 auto~ 4        16    25 p     comp~
## 10 audi         a4 q~   2    2008     4 manu~ 4        20    28 p     comp~
## # ... with 224 more rows
```
…
