…
``` r
library(tidyverse)
```

------------------------------------------------------------------------

10.2 Creating tibbles
---------------------

이 책에서, 앞으로 니가 이용할 모든 함수는 tibbles를 만들 것이다. <br /> Almost all of the functions that you’ll use in this book produce tibbles <br /> 왜냐하면 tibbles가 tidyverse의 unifying features 중 하나이기 때문이다. <br /> 다른 거의 모든 R 패키지들은 원래의 data frames를 이용하기 때문에, tibble로 변환하고 싶다면, <br /> `as_tibble()`을 쓰자.

``` r
as_tibble(iris)
## # A tibble: 150 x 5
##    Sepal.Length Sepal.Width Petal.Length Petal.Width Species
##           <dbl>       <dbl>        <dbl>       <dbl> <fct>  
##  1          5.1         3.5          1.4         0.2 setosa 
##  2          4.9         3            1.4         0.2 setosa 
##  3          4.7         3.2          1.3         0.2 setosa 
##  4          4.6         3.1          1.5         0.2 setosa 
##  5          5           3.6          1.4         0.2 setosa 
##  6          5.4         3.9          1.7         0.4 setosa 
##  7          4.6         3.4          1.4         0.3 setosa 
##  8          5           3.4          1.5         0.2 setosa 
##  9          4.4         2.9          1.4         0.2 setosa 
## 10          4.9         3.1          1.5         0.1 setosa 
## # ... with 140 more rows
```
…
tibble과 전통적인 `data.frame` 사이엔 2가지 주요한 차이점이 있다. printing과 subsetting

### 10.3.1 Printing

Tibbles는 정제된refined print method를 가지고 있다. 제한적인 프린트를 해준다는 뜻. <br /> 즉, 딱 첫 10개의 줄만 보여주고, 칼럼들의 경우에는 스크린에 딱 맞게끔만 보여준다. <br /> large data에 대해서는 이게 더 일하기 쉽다. 이름과 함께, 그 열의 타입도 알려준다. <br /> `str()`로부터 빌려온 좋은 특성feature.

``` r
tibble(
    a = lubridate::now() + runif(1e3) * 86400,
    b = lubridate::today() +runif(1e3) * 30,
    c = 1:1e3,
    d = runif(1e3),
    e = sample(letters, 1e3, replace = TRUE)
)
## # A tibble: 1,000 x 5
##    a                   b              c     d e    
##    <dttm>              <date>     <int> <dbl> <chr>
##  1 2019-12-24 22:27:20 2019-12-29     1 0.761 w    
##  2 2019-12-24 10:47:35 2020-01-16     2 0.631 o    
##  3 2019-12-25 02:09:13 2019-12-25     3 0.352 n    
##  4 2019-12-24 19:15:28 2020-01-02     4 0.961 h    
##  5 2019-12-24 16:51:10 2019-12-25     5 0.552 i    
##  6 2019-12-25 06:25:14 2020-01-06     6 0.223 m    
##  7 2019-12-24 09:30:19 2019-12-31     7 0.106 t    
##  8 2019-12-25 02:03:10 2020-01-18     8 0.655 n    
##  9 2019-12-25 07:44:15 2020-01-02     9 0.150 e    
## 10 2019-12-24 21:11:05 2020-01-08    10 0.367 n    
## # ... with 990 more rows
```
…
