…
`readr_example()`은 패키지 안에 있는 파일의 path를 찾아주는 것.

이렇게 불러보면, 2개의 출력된 아웃풋이 있다. <br /> 하나는 처음 1000개의 행을 보고 어떤 칼럼인지 specification을 한 것, <br /> 두 번째는 처음 5개의 parsing failures.

`problems()`를 이용해서 문제가 뭔지 직접적으로 끄집어내어, 좀 더 깊게 탐구해보는 건 항상 좋은 생각이다.

``` r
problems(challenge)
## # A tibble: 1,000 x 5
##      row col   expected      actual   file                                 
##    <int> <chr> <chr>         <chr>    <chr>                                
##  1  1001 y     1/0/T/F/TRUE~ 2015-01~ 'C:/Users/Phil2/Documents/R/win-libr~
##  2  1002 y     1/0/T/F/TRUE~ 2018-05~ 'C:/Users/Phil2/Documents/R/win-libr~
##  3  1003 y     1/0/T/F/TRUE~ 2015-09~ 'C:/Users/Phil2/Documents/R/win-libr~
##  4  1004 y     1/0/T/F/TRUE~ 2012-11~ 'C:/Users/Phil2/Documents/R/win-libr~
##  5  1005 y     1/0/T/F/TRUE~ 2020-01~ 'C:/Users/Phil2/Documents/R/win-libr~
##  6  1006 y     1/0/T/F/TRUE~ 2016-04~ 'C:/Users/Phil2/Documents/R/win-libr~
##  7  1007 y     1/0/T/F/TRUE~ 2011-05~ 'C:/Users/Phil2/Documents/R/win-libr~
##  8  1008 y     1/0/T/F/TRUE~ 2020-07~ 'C:/Users/Phil2/Documents/R/win-libr~
##  9  1009 y     1/0/T/F/TRUE~ 2011-04~ 'C:/Users/Phil2/Documents/R/win-libr~
## 10  1010 y     1/0/T/F/TRUE~ 2010-05~ 'C:/Users/Phil2/Documents/R/win-libr~
## # ... with 990 more rows
```
…
-   guess를 하는데 있어 몇 가지 줄을 참고할 건지를 정해줄 수 있다. <br /> 예를 들어서, 위에서 했던 예는 좀 불행했다. 디폴트보다 한 줄만 더 봤어도 한 번에 제대로 parse할 수 있었을거니깐.

``` r
challenge2 <- read_csv(readr_example("challenge.csv"), guess_max = 1001)
## Parsed with column specification:
## cols(
##   x = col_double(),
##   y = col_date(format = "")
## )
```

``` r
challenge2
## # A tibble: 2,000 x 2
##        x y         
##    <dbl> <date>    
##  1   404 NA        
##  2  4172 NA        
##  3  3004 NA        
##  4   787 NA        
##  5    37 NA        
##  6  2332 NA        
##  7  2489 NA        
##  8  1449 NA        
##  9  3665 NA        
## 10  3863 NA        
## # ... with 1,990 more rows
```
…
