…
`airports`: 각 공항에 대한 정보를 준다. faa airport code로 확인할 수 있는.

``` r
airports
```

    ## # A tibble: 1,458 x 8
    ##    faa   name                    lat    lon   alt    tz dst   tzone        
    ##    <chr> <chr>                 <dbl>  <dbl> <int> <dbl> <chr> <chr>        
    ##  1 04G   Lansdowne Airport      41.1  -80.6  1044    -5 A     America/New_~
    ##  2 06A   Moton Field Municipa~  32.5  -85.7   264    -6 A     America/Chic~
    ##  3 06C   Schaumburg Regional    42.0  -88.1   801    -6 A     America/Chic~
    ##  4 06N   Randall Airport        41.4  -74.4   523    -5 A     America/New_~
    ##  5 09J   Jekyll Island Airport  31.1  -81.4    11    -5 A     America/New_~
    ##  6 0A9   Elizabethton Municip~  36.4  -82.2  1593    -5 A     America/New_~
    ##  7 0G6   Williams County Airp~  41.5  -84.5   730    -5 A     America/New_~
    ##  8 0G7   Finger Lakes Regiona~  42.9  -76.8   492    -5 A     America/New_~
    ##  9 0P2   Shoestring Aviation ~  39.8  -76.6  1000    -5 U     America/New_~
    ## 10 0S9   Jefferson County Intl  48.1 -123.    108    -8 A     America/Los_~
    ## # ... with 1,448 more rows

`planes`: 각 비행기 정보를 준다. tailnum로 확인할 수 있는.

``` r
planes
```

    ## # A tibble: 3,322 x 9
    ##    tailnum  year type       manufacturer  model  engines seats speed engine
    ##    <chr>   <int> <chr>      <chr>         <chr>    <int> <int> <int> <chr> 
    ##  1 N10156   2004 Fixed win~ EMBRAER       EMB-1~       2    55    NA Turbo~
    ##  2 N102UW   1998 Fixed win~ AIRBUS INDUS~ A320-~       2   182    NA Turbo~
    ##  3 N103US   1999 Fixed win~ AIRBUS INDUS~ A320-~       2   182    NA Turbo~
    ##  4 N104UW   1999 Fixed win~ AIRBUS INDUS~ A320-~       2   182    NA Turbo~
    ##  5 N10575   2002 Fixed win~ EMBRAER       EMB-1~       2    55    NA Turbo~
    ##  6 N105UW   1999 Fixed win~ AIRBUS INDUS~ A320-~       2   182    NA Turbo~
    ##  7 N107US   1999 Fixed win~ AIRBUS INDUS~ A320-~       2   182    NA Turbo~
    ##  8 N108UW   1999 Fixed win~ AIRBUS INDUS~ A320-~       2   182    NA Turbo~
    ##  9 N109UW   1999 Fixed win~ AIRBUS INDUS~ A320-~       2   182    NA Turbo~
    ## 10 N110UW   1999 Fixed win~ AIRBUS INDUS~ A320-~       2   182    NA Turbo~
    ## # ... with 3,312 more rows

`weather`: NYC 공항에서의 시간별 날씨를 준다.

``` r
weather
```

    ## # A tibble: 26,115 x 15
    ##    origin  year month   day  hour  temp  dewp humid wind_dir wind_speed
    ##    <chr>  <dbl> <dbl> <int> <int> <dbl> <dbl> <dbl>    <dbl>      <dbl>
    ##  1 EWR     2013     1     1     1  39.0  26.1  59.4      270      10.4 
    ##  2 EWR     2013     1     1     2  39.0  27.0  61.6      250       8.06
    ##  3 EWR     2013     1     1     3  39.0  28.0  64.4      240      11.5 
    ##  4 EWR     2013     1     1     4  39.9  28.0  62.2      250      12.7 
    ##  5 EWR     2013     1     1     5  39.0  28.0  64.4      260      12.7 
    ##  6 EWR     2013     1     1     6  37.9  28.0  67.2      240      11.5 
    ##  7 EWR     2013     1     1     7  39.0  28.0  64.4      240      15.0 
    ##  8 EWR     2013     1     1     8  39.9  28.0  62.2      250      10.4 
    ##  9 EWR     2013     1     1     9  39.9  28.0  62.2      260      15.0 
    ## 10 EWR     2013     1     1    10  41    28.0  59.6      260      13.8 
    ## # ... with 26,105 more rows, and 5 more variables: wind_gust <dbl>,
    ## #   precip <dbl>, pressure <dbl>, visib <dbl>, time_hour <dttm>
…
