…
`mutate()`랑 `str_count()`를 같이 쓰는건 자연스러운 일이다.

``` r
df %>%
    mutate(
        vowels = str_count(word, "[aeiou]"),
        consonants = str_count(word, "[^aeiou]")
    )
## Warning: The `printer` argument is deprecated as of rlang 0.3.0.
## This warning is displayed once per session.
## # A tibble: 980 x 4
##    word         i vowels consonants
##    <chr>    <int>  <int>      <int>
##  1 a            1      1          0
##  2 able         2      2          2
##  3 about        3      3          2
##  4 absolute     4      4          4
##  5 accept       5      2          4
##  6 account      6      3          4
##  7 achieve      7      4          3
##  8 across       8      2          4
##  9 act          9      1          2
## 10 active      10      3          3
## # ... with 970 more rows
```
…
