…
``` r
levels(f2)
## [1] "Dec" "Apr" "Jan" "Mar"
```

------------------------------------------------------------------------

15.3 General Social Survey
--------------------------

남은 chapter 내내, `forcats::gss_cat`에 대해서 다룰 것이다. [General Social Survey](http://gss.norc.org/)에서 나온 데이터, 시카고 대학의 독립적인 조사 기구 NORC에서 진행한 long-running US survey다. 이 설문조사는 수천 개의 질문들이 있었는데, `gss_cat`에서는 일부분만 Hadley가 뽑아낸 것. factors를 작업할 때 일반적으로 마주치는 문제들을 다루어보려고.

``` r
gss_cat
## # A tibble: 21,483 x 9
##     year marital     age race  rincome   partyid    relig   denom   tvhours
##    <int> <fct>     <int> <fct> <fct>     <fct>      <fct>   <fct>     <int>
##  1  2000 Never ma~    26 White $8000 to~ Ind,near ~ Protes~ Southe~      12
##  2  2000 Divorced     48 White $8000 to~ Not str r~ Protes~ Baptis~      NA
##  3  2000 Widowed      67 White Not appl~ Independe~ Protes~ No den~       2
##  4  2000 Never ma~    39 White Not appl~ Ind,near ~ Orthod~ Not ap~       4
##  5  2000 Divorced     25 White Not appl~ Not str d~ None    Not ap~       1
##  6  2000 Married      25 White $20000 -~ Strong de~ Protes~ Southe~      NA
##  7  2000 Never ma~    36 White $25000 o~ Not str r~ Christ~ Not ap~       3
##  8  2000 Divorced     44 White $7000 to~ Ind,near ~ Protes~ Luther~      NA
##  9  2000 Married      44 White $25000 o~ Not str d~ Protes~ Other         0
## 10  2000 Married      47 White $25000 o~ Strong re~ Protes~ Southe~       3
## # ... with 21,473 more rows
```
…
