…
``` r
library(tidyverse)
library(lubridate)
library(neuralnet)

setwd("C:/Users/Phil2/Downloads")
concert <- read_csv("data_concert.csv")[-10]
artist <- read_csv("data_artist.csv")
vlive <- read_csv("data_vlive.csv")
mv <- read_csv("data_mv.csv")
twitter <- read_csv("data_twitter.csv")
concert
```

    ## # A tibble: 155 x 9
    ##    artist continent city  closing_date  make population   gdp
    ##    <chr>      <dbl> <chr> <chr>        <dbl>      <dbl> <dbl>
    ##  1 aaaa3~         1 76f3~ 2015.11.5    1.17      0.144  2.31 
    ##  2 aaaa3~         1 8d00~ 2015.11.5    1.02      0.0445 2.19 
    ##  3 aaaa3~         1 4cba~ 2015.11.5    1.10      0.0865 1.01 
    ##  4 aaaa3~         1 4d34~ 2015.11.5    1.59      0.0850 0.679
    ##  5 6db3d~         2 cf2c~ 2015.11.22   1.25      0.0524 2.85 
    ##  6 aaaa3~         1 6504~ 2015.11.18   1.17      0.545  1.90 
    ##  7 bdce4~         2 f485~ 2015.12.9    0.808     0.279  0.468
    ##  8 bdce4~         2 daf6~ 2015.12.9    0.772     2.31   0.185
    ##  9 bdce4~         2 5e86~ 2015.12.9    0.539     0.639  0.320
    ## 10 145a1~         1 ccb9~ 2016.3.13    1.14      0.538  1.91 
    ## # ... with 145 more rows, and 2 more variables: tastemaker_count <dbl>,
    ## #   ticket_sales <dbl>

``` r
artist
```

    ## # A tibble: 22 x 2
    ##    artist   gender
    ##    <chr>     <dbl>
    ##  1 aaaa33d9      0
    ##  2 6db3de5a      0
    ##  3 bdce474a      0
    ##  4 145a1215      0
    ##  5 550d7ae2      0
    ##  6 62a22f5c      2
    ##  7 8f4a1945      1
    ##  8 69821cdd      1
    ##  9 9813d312      0
    ## 10 f6450680      1
    ## # ... with 12 more rows

``` r
vlive
```

    ## # A tibble: 8,223 x 7
    ##    artist upload_date follower playtime view_count like_count comment_count
    ##    <chr>  <chr>          <dbl>    <dbl>      <dbl>      <dbl>         <dbl>
    ##  1 bdce4~ 2017.4.2      0.923    0.161      0.171      0.0754       0.0351 
    ##  2 62a22~ 2017.2.11     0.422    0.0764     0.101      0.0169       0.0176 
    ##  3 f6450~ 2016.4.25     0.0861   2.75       0.108      0.0150       0.120  
    ##  4 f6450~ 2017.12.7     0.0861   0.0726     0.0367     0.0103       0.0141 
    ##  5 368e6~ 2017.8.20     0.156    1.23       0.405      0.208        0.188  
    ##  6 368e6~ 2018.5.25     0.156    1.39       0.654      0.312        0.886  
    ##  7 8f4a1~ 2015.6.22     0.143    1.10       0.316      0.0354       0.414  
    ##  8 8f4a1~ 2017.6.7      0.143    2.62       0.0661     0.0426       0.129  
    ##  9 69821~ 2016.1.15     1.28     0.655      0.353      0.0290       0.291  
    ## 10 69821~ 2017.11.16    1.28     0.0634     0.167      0.0227       0.00773
    ## # ... with 8,213 more rows

``` r
mv
```

    ## # A tibble: 203 x 6
    ##    artist   upload_date view_count like_count dislike_count comment_count
    ##    <chr>    <chr>            <dbl>      <dbl>         <dbl>         <dbl>
    ##  1 145a1215 2017.12.20       0.964      1.70          0.838         1.64 
    ##  2 145a1215 2017.8.23        1.40       2.15          1.14          1.88 
    ##  3 786d89ee 2018.4.20        1.08       2.42          2.11          1.96 
    ##  4 f4055a26 2018.3.21        1.44       3.50          1.81          5.02 
    ##  5 145a1215 2017.1.25        0.816      1.62          0.558         1.38 
    ##  6 786d89ee 2018.1.23        1.90       3.77          2.42          3.69 
    ##  7 f4055a26 2017.10.4        1.17       2.49          0.774         2.37 
    ##  8 a9fba206 2017.10.11       0.263      0.834         0.142         0.531
    ##  9 145a1215 2016.9.8         1.25       2.29          0.976         1.26 
    ## 10 786d89ee 2017.8.23        0.982      1.79          0.750         1.41 
    ## # ... with 193 more rows

``` r
twitter
```

    ## # A tibble: 20,001 x 7
    ##    artist upload_date follower total_tweet like_count retweet_count
    ##    <chr>  <chr>          <dbl>       <dbl>      <dbl>         <dbl>
    ##  1 145a1~ 2018.6.17       1.68        2.05      3.91          2.89 
    ##  2 145a1~ 2018.6.16       1.68        2.05      4.71          3.70 
    ##  3 145a1~ 2018.6.14       1.68        2.05      3.74          3.17 
    ##  4 145a1~ 2018.6.19       1.68        2.05      3.96          2.85 
    ##  5 145a1~ 2018.6.16       1.68        2.05      3.99          3.17 
    ##  6 145a1~ 2018.6.21       1.68        2.05      0.686         0.320
    ##  7 145a1~ 2018.6.21       1.68        2.05      0.775         0.358
    ##  8 145a1~ 2018.6.20       1.68        2.05      0.814         0.361
    ##  9 145a1~ 2018.6.19       1.68        2.05      1.89          1.39 
    ## 10 145a1~ 2018.6.17       1.68        2.05      3.42          2.57 
    ## # ... with 19,991 more rows, and 1 more variable: comment_count <dbl>
…
